-------------------------------------------------------------------------------
Test set: com.dcx.testcases_stepdefination.findDistanceTest
-------------------------------------------------------------------------------
Tests run: 0, Failures: 0, Errors: 0, Skipped: 0, Time elapsed: 0.637 sec
